library(highcharter) ¡De principiante a experto!
…
Más variedad en http://jkunst.com/highcharts-themes-collection/

---

# Datos a probar

```r
diamantes
```

```
## # A tibble: 53,940 x 10
##    precio quilate corte  color claridad profundidad tabla     x     y     z
##     <int>   <dbl> <ord>  <ord> <ord>          <dbl> <dbl> <dbl> <dbl> <dbl>
##  1    326   0.23  Ideal  E     SI2             61.5    55  3.95  3.98  2.43
##  2    326   0.21  Premi~ E     SI1             59.8    61  3.89  3.84  2.31
##  3    327   0.23  Bueno  E     VS1             56.9    65  4.05  4.07  2.31
##  4    334   0.290 Premi~ I     VS2             62.4    58  4.2   4.23  2.63
##  5    335   0.31  Bueno  J     SI2             63.3    58  4.34  4.35  2.75
##  6    336   0.24  Muy b~ J     VVS2            62.8    57  3.94  3.96  2.48
##  7    336   0.24  Muy b~ I     VVS1            62.3    57  3.95  3.98  2.47
##  8    337   0.26  Muy b~ H     SI1             61.9    55  4.07  4.11  2.53
##  9    337   0.22  Regul~ E     VS2             65.1    61  3.87  3.78  2.49
## 10    338   0.23  Muy b~ H     VS1             59.4    61  4     4.05  2.39
## # ... with 53,930 more rows
```
…
https://www.sharpsightlabs.com/blog/r-package-think-about-visualization/
https://rpubs.com/JoanClaverol/405488

---

# Datos a utilizar

```r
millas
```

```
## # A tibble: 234 x 11
##    fabricante modelo motor  anio cilindros transmision traccion ciudad
##    <chr>      <chr>  <dbl> <int>     <int> <chr>       <chr>     <int>
##  1 audi       a4       1.8  1999         4 auto(l5)    d            18
##  2 audi       a4       1.8  1999         4 manual(m5)  d            21
##  3 audi       a4       2    2008         4 manual(m6)  d            20
##  4 audi       a4       2    2008         4 auto(av)    d            21
##  5 audi       a4       2.8  1999         6 auto(l5)    d            16
##  6 audi       a4       2.8  1999         6 manual(m5)  d            18
##  7 audi       a4       3.1  2008         6 auto(av)    d            18
##  8 audi       a4 qu~   1.8  1999         4 manual(m5)  4            18
##  9 audi       a4 qu~   1.8  1999         4 auto(l5)    4            16
## 10 audi       a4 qu~   2    2008         4 manual(m6)  4            20
## # ... with 224 more rows, and 3 more variables: autopista <int>,
## #   combustible <chr>, clase <chr>
```
…
